{
	"info": {
		"_postman_id": "766dd0b5-81e3-4df8-b9e9-ca653f756e6c",
		"name": "ASI-2 Student",
		"schema": "https://schema.getpostman.com/json/collection/v2.1.0/collection.json"
	},
	"item": [
		{
			"name": "User",
			"item": [
				{
					"name": "Local Add User",
					"request": {
						"method": "POST",
						"header": [
							{
								"key": "Content-Type",
								"name": "Content-Type",
								"value": "application/json",
								"type": "text"
							}
						],
						"body": {
							"mode": "raw",
							"raw": "{\n\t\"login\":\"{{username}}{{$randomInt}}\",\n\t\"pwd\":\"{{password}}\",\n\t\"lastName\":\"Doe\",\n\t\"surName\":\"John\",\n\t\"balance\":1000\n}\n"
						},
						"url": {
							"raw": "{{userEndpoint}}/user",
							"host": [
								"{{userEndpoint}}"
							],
							"path": [
								"user"
							]
						}
					},
					"response": []
				},
				{
					"name": "Local Get User",
					"request": {
						"method": "GET",
						"header": [
							{
								"key": "Content-Type",
								"name": "Content-Type",
								"value": "application/json",
								"type": "text"
							}
						],
						"url": {
							"raw": "{{userEndpoint}}/user/:username",
							"host": [
								"{{userEndpoint}}"
							],
							"path": [
								"user",
								":username"
							],
							"variable": [
								{
									"key": "username",
									"value": "{{username}}"
								}
							]
						}
					},
					"response": []
				},
				{
					"name": "Local Get User id",
					"request": {
						"method": "GET",
						"header": [
							{
								"key": "Content-Type",
								"name": "Content-Type",
								"value": "application/json",
								"type": "text"
							}
						],
						"url": {
							"raw": "{{userEndpoint}}/user_id/:id",
							"host": [
								"{{userEndpoint}}"
							],
							"path": [
								"user_id",
								":id"
							],
							"variable": [
								{
									"key": "id",
									"value": "{{userId}}"
								}
							]
						}
					},
					"response": []
				},
				{
					"name": "Local  get Users",
					"protocolProfileBehavior": {
						"disableBodyPruning": true
					},
					"request": {
						"method": "GET",
						"header": [
							{
								"key": "Content-Type",
								"name": "Content-Type",
								"value": "application/json",
								"type": "text"
							}
						],
						"body": {
							"mode": "raw",
							"raw": ""
						},
						"url": {
							"raw": "{{userEndpoint}}/users",
							"host": [
								"{{userEndpoint}}"
							],
							"path": [
								"users"
							]
						}
					},
					"response": []
				},
				{
					"name": "Local Auth",
					"request": {
						"method": "POST",
						"header": [
							{
								"key": "Content-Type",
								"name": "Content-Type",
								"value": "application/json",
								"type": "text"
							}
						],
						"body": {
							"mode": "raw",
							"raw": "{\n\t\"username\":\"{{username}}\",\n\t\"password\":\"{{password}}\"\n}",
							"options": {
								"raw": {
									"language": "json"
								}
							}
						},
						"url": {
							"raw": "{{authEndpoint}}/auth",
							"host": [
								"{{authEndpoint}}"
							],
							"path": [
								"auth"
							]
						}
					},
					"response": []
				},
				{
					"name": "Put User",
					"request": {
						"method": "PUT",
						"header": [],
						"url": {
							"raw": "{{userEndpoint}}/user/:username",
							"host": [
								"{{userEndpoint}}"
							],
							"path": [
								"user",
								":username"
							],
							"variable": [
								{
									"key": "username",
									"value": null,
									"description": "String"
								}
							]
						}
					},
					"response": []
				},
				{
					"name": "Put User Balance Change",
					"request": {
						"method": "PUT",
						"header": [],
						"url": {
							"raw": "{{userEndpoint}}/user/:username",
							"host": [
								"{{userEndpoint}}"
							],
							"path": [
								"user",
								":username"
							],
							"variable": [
								{
									"key": "username",
									"value": null,
									"description": "String"
								}
							]
						}
					},
					"response": []
				}
			]
		},
		{
			"name": "Card",
			"item": [
				{
					"name": "Local get Cards",
					"protocolProfileBehavior": {
						"disableBodyPruning": true
					},
					"request": {
						"method": "GET",
						"header": [
							{
								"key": "Content-Type",
								"name": "Content-Type",
								"value": "application/json",
								"type": "text"
							}
						],
						"body": {
							"mode": "raw",
							"raw": ""
						},
						"url": {
							"raw": "{{cardEndpoint}}/cards",
							"host": [
								"{{cardEndpoint}}"
							],
							"path": [
								"cards"
							]
						}
					},
					"response": []
				},
				{
					"name": "Local get Cards User",
					"protocolProfileBehavior": {
						"disableBodyPruning": true
					},
					"request": {
						"method": "GET",
						"header": [
							{
								"key": "Content-Type",
								"name": "Content-Type",
								"value": "application/json",
								"type": "text"
							}
						],
						"body": {
							"mode": "raw",
							"raw": ""
						},
						"url": {
							"raw": "{{cardEndpoint}}/cardsUser/:id",
							"host": [
								"{{cardEndpoint}}"
							],
							"path": [
								"cardsUser",
								":id"
							],
							"variable": [
								{
									"key": "id",
									"value": "{{userId}}"
								}
							]
						}
					},
					"response": []
				},
				{
					"name": "Local get Cards to sell",
					"protocolProfileBehavior": {
						"disableBodyPruning": true
					},
					"request": {
						"method": "GET",
						"header": [
							{
								"key": "Content-Type",
								"name": "Content-Type",
								"value": "application/json",
								"type": "text"
							}
						],
						"body": {
							"mode": "raw",
							"raw": ""
						},
						"url": {
							"raw": "{{cardEndpoint}}/cards_to_sell",
							"host": [
								"{{cardEndpoint}}"
							],
							"path": [
								"cards_to_sell"
							]
						}
					},
					"response": []
				},
				{
					"name": "Local  add Card",
					"request": {
						"method": "POST",
						"header": [
							{
								"key": "Content-Type",
								"name": "Content-Type",
								"value": "application/json",
								"type": "text"
							}
						],
						"body": {
							"mode": "raw",
							"raw": "{\n        \"name\": \"{{$randomNoun}}\",\n        \"description\": \"{{$randomLoremWord}}\",\n        \"family\": \"{{$randomCountry}}\",\n        \"affinity\": \"{{$randomJobDescriptor}}\",\n        \"imgUrl\": \"http://medias.3dvf.com/news/sitegrab/gits2045.jpg\",\n        \"smallImgUrl\": \"https://cdn.animenewsnetwork.com/thumbnails/fit600x1000/cms/feature/89858/05.jpg\",\n        \"energy\": 100,\n        \"hp\": 81.19427,\n        \"defence\": {{$randomInt}},\n        \"attack\": {{$randomInt}},\n        \"price\": {{$randomInt}},\n        \"userId\": {{userId}},\n        \"storeId\": null\n    }"
						},
						"url": {
							"raw": "{{cardEndpoint}}/card",
							"host": [
								"{{cardEndpoint}}"
							],
							"path": [
								"card"
							]
						}
					},
					"response": []
				},
				{
					"name": "Local  buy card",
					"request": {
						"method": "POST",
						"header": [
							{
								"key": "Content-Type",
								"name": "Content-Type",
								"value": "application/json",
								"type": "text"
							}
						],
						"body": {
							"mode": "raw",
							"raw": "{\n        \"buyerId\": {{userId}},\n        \"cardId\": {{cardId}}\n    }"
						},
						"url": {
							"raw": "{{cardEndpoint}}/card_buy",
							"host": [
								"{{cardEndpoint}}"
							],
							"path": [
								"card_buy"
							]
						}
					},
					"response": []
				},
				{
					"name": "Local  update Card",
					"request": {
						"method": "PUT",
						"header": [
							{
								"key": "Content-Type",
								"name": "Content-Type",
								"value": "application/json",
								"type": "text"
							}
						],
						"body": {
							"mode": "raw",
							"raw": "{\n        \"name\": \"------------------------------------------------------------------\",\n        \"description\": \"description6\",\n        \"family\": \"family6\",\n        \"affinity\": \"affinity6\",\n        \"energy\": 100,\n        \"hp\": 0.7758796,\n        \"defence\": 95.48933,\n        \"attack\": 41.27368,\n        \"price\": 0,\n        \"userId\": 6,\n        \"storeId\": null\n    }"
						},
						"url": {
							"raw": "{{cardEndpoint}}/card/:id",
							"host": [
								"{{cardEndpoint}}"
							],
							"path": [
								"card",
								":id"
							],
							"variable": [
								{
									"key": "id",
									"value": "{{cardId}}"
								}
							]
						}
					},
					"response": []
				},
				{
					"name": "Local  delete Card",
					"request": {
						"method": "DELETE",
						"header": [
							{
								"key": "Content-Type",
								"name": "Content-Type",
								"value": "application/json",
								"type": "text"
							}
						],
						"body": {
							"mode": "raw",
							"raw": "{\n        \"id\": 12,\n        \"name\": \"------------------------------------------------------------------\",\n        \"description\": \"description6\",\n        \"family\": \"family6\",\n        \"affinity\": \"affinity6\",\n        \"energy\": 100,\n        \"hp\": 0.7758796,\n        \"defence\": 95.48933,\n        \"attack\": 41.27368,\n        \"price\": 1000,\n        \"userId\": 6,\n        \"storeId\": null\n    }"
						},
						"url": {
							"raw": "{{cardEndpoint}}/card/:id",
							"host": [
								"{{cardEndpoint}}"
							],
							"path": [
								"card",
								":id"
							],
							"variable": [
								{
									"key": "id",
									"value": "{{cardId}}"
								}
							]
						}
					},
					"response": []
				},
				{
					"name": "Local  get Card",
					"request": {
						"method": "GET",
						"header": [
							{
								"key": "Content-Type",
								"name": "Content-Type",
								"value": "application/json",
								"type": "text"
							}
						],
						"url": {
							"raw": "{{cardEndpoint}}/card/:id",
							"host": [
								"{{cardEndpoint}}"
							],
							"path": [
								"card",
								":id"
							],
							"variable": [
								{
									"key": "id",
									"value": "{{cardId}}"
								}
							]
						}
					},
					"response": []
				}
			]
		},
		{
			"name": "Transaction",
			"item": [
				{
					"name": "Buy Card",
					"request": {
						"method": "POST",
						"header": [
							{
								"key": "Content-Type",
								"name": "Content-Type",
								"value": "application/json",
								"type": "text"
							},
							{
								"key": "Login",
								"value": "{{username}}",
								"type": "text"
							}
						],
						"body": {
							"mode": "raw",
							"raw": "{\n    \"cardId\": {{cardId}},\n    \"buyerId\": {{userId}}\n}"
						},
						"url": {
							"raw": "{{transactionEndpoint}}/sell",
							"host": [
								"{{transactionEndpoint}}"
							],
							"path": [
								"sell"
							]
						}
					},
					"response": []
				},
				{
					"name": "Local get transactions",
					"protocolProfileBehavior": {
						"disableBodyPruning": true
					},
					"request": {
						"method": "GET",
						"header": [
							{
								"key": "Content-Type",
								"name": "Content-Type",
								"value": "application/json",
								"type": "text"
							}
						],
						"body": {
							"mode": "raw",
							"raw": ""
						},
						"url": {
							"raw": "{{cardEndpoint}}/cards_to_sell",
							"host": [
								"{{cardEndpoint}}"
							],
							"path": [
								"cards_to_sell"
							]
						}
					},
					"response": []
				},
				{
					"name": "Local get transaction",
					"protocolProfileBehavior": {
						"disableBodyPruning": true
					},
					"request": {
						"method": "GET",
						"header": [
							{
								"key": "Content-Type",
								"name": "Content-Type",
								"value": "application/json",
								"type": "text"
							}
						],
						"body": {
							"mode": "raw",
							"raw": ""
						},
						"url": {
							"raw": "{{cardEndpoint}}/transaction/:id",
							"host": [
								"{{cardEndpoint}}"
							],
							"path": [
								"transaction",
								":id"
							],
							"variable": [
								{
									"key": "id",
									"value": "{{transactionId}}"
								}
							]
						}
					},
					"response": []
				},
				{
					"name": "Local update transaction",
					"request": {
						"method": "PUT",
						"header": [
							{
								"key": "Content-Type",
								"name": "Content-Type",
								"value": "application/json",
								"type": "text"
							}
						],
						"body": {
							"mode": "raw",
							"raw": ""
						},
						"url": {
							"raw": "{{cardEndpoint}}/transaction/:id",
							"host": [
								"{{cardEndpoint}}"
							],
							"path": [
								"transaction",
								":id"
							],
							"variable": [
								{
									"key": "id",
									"value": "{{transactionId}}"
								}
							]
						}
					},
					"response": []
				}
			]
		}
	],
	"event": [
		{
			"listen": "prerequest",
			"script": {
				"type": "text/javascript",
				"exec": [
					""
				]
			}
		},
		{
			"listen": "test",
			"script": {
				"type": "text/javascript",
				"exec": [
					""
				]
			}
		}
	],
	"variable": [
		{
			"value": ""
		}
	]
}